id,name,model_id:id,group_id:id,perm_read,perm_write,perm_create,perm_unlink
access_asignacion_asignacion,asignacion.asignacion,model_asignacion_asignacion,,1,1,1,1
access_item_item,item.item,model_item_item,,1,1,1,1
access_subtitulo_subtitulo,subtitulo.subtitulo,model_subtitulo_subtitulo,,1,1,1,1